{
  "project_info": {
    "project_number": "403654962684",
    "project_id": "prosic-concept-a9223",
    "storage_bucket": "prosic-concept-a9223.appspot.com"
  },
  "client": [
    {
      "client_info": {
        "mobilesdk_app_id": "1:403654962684:android:500d8b93f62cffaa22d679",
        "android_client_info": {
          "package_name": "com.example.hello_world"
        }
      },
      "oauth_client": [
        {
          "client_id": "403654962684-k6v34a886pdhuimf8plg58mbjhjnkhts.apps.googleusercontent.com",
          "client_type": 3
        }
      ],
      "api_key": [
        {
          "current_key": "AIzaSyBiihPiMyEgLX4NDUu0roHl-Ftc252rzI0"
        }
      ],
      "services": {
        "appinvite_service": {
          "other_platform_oauth_client": [
            {
              "client_id": "403654962684-k6v34a886pdhuimf8plg58mbjhjnkhts.apps.googleusercontent.com",
              "client_type": 3
            }
          ]
        }
      }
    }
  ],
  "configuration_version": "1"
}